{
  "project_info": {
    "project_number": "806805648347",
    "firebase_url": "https://help-in-your-day.firebaseio.com",
    "project_id": "help-in-your-day",
    "storage_bucket": "help-in-your-day.appspot.com"
  },
  "client": [
    {
      "client_info": {
        "mobilesdk_app_id": "1:806805648347:android:a95532df2c2939f1ffadfe",
        "android_client_info": {
          "package_name": "com.iteyes.helpinyourday"
        }
      },
      "oauth_client": [
        {
          "client_id": "806805648347-b3bc96p4r20cgov1gh7hmgh65gtmvj04.apps.googleusercontent.com",
          "client_type": 1,
          "android_info": {
            "package_name": "com.iteyes.helpinyourday",
            "certificate_hash": "a31739c9e329b409d3d4a7549d6e4545a4ff87cb"
          }
        },
        {
          "client_id": "806805648347-hkpk53l69hlg4cpfqfjas465uqbfmb2b.apps.googleusercontent.com",
          "client_type": 3
        }
      ],
      "api_key": [
        {
          "current_key": "AIzaSyBnarFdHATK2ntsi3ib6qdgPa4A4PkMg4Y"
        }
      ],
      "services": {
        "appinvite_service": {
          "other_platform_oauth_client": [
            {
              "client_id": "806805648347-hkpk53l69hlg4cpfqfjas465uqbfmb2b.apps.googleusercontent.com",
              "client_type": 3
            }
          ]
        }
      }
    }
  ],
  "configuration_version": "1"
}